Stat 850: Computing Tools for Statisticians - Homework 11: Simulation
…
  # Set up points
  # This will change depending on which game you want to simulate
  # I have demonstrated this using hearts 
  deck %>%
    mutate(points = (suit == "hearts") +
             13*(suit == "spades" & value == "Queen")) %>%
    # add a card ID
    mutate(id = 1:n())
}

create_deck()

# A tibble: 52 × 4
   suit  value points    id
   <chr> <fct>  <dbl> <int>
 1 clubs 2          0     1
 2 clubs 3          0     2
 3 clubs 4          0     3
 4 clubs 5          0     4
 5 clubs 6          0     5
 6 clubs 7          0     6
 7 clubs 8          0     7
 8 clubs 9          0     8
 9 clubs 10         0     9
10 clubs Jack       0    10
# ℹ 42 more rows
…
  deck
}

create_deck() %>%
  deck_fix(n_players = 3) %>%
  arrange(value, suit)

# A tibble: 51 × 4
   suit     value points    id
   <chr>    <fct>  <dbl> <int>
 1 clubs    2          0     1
 2 hearts   2          1    27
 3 spades   2          0    40
 4 clubs    3          0     2
 5 diamonds 3          0    15
 6 hearts   3          1    28
 7 spades   3          0    41
 8 clubs    4          0     3
 9 diamonds 4          0    16
10 hearts   4          1    29
# ℹ 41 more rows
…
  number_of_rounds <- nrow(deck)/length(players)

  for (i in 1:number_of_rounds) {
    # print(i)
    deck <- play_trick(deck)
    # print(filter(deck, trick == i))
  }

  return(deck)
}

hearts(c("Amy", "Beth", "Cara", "Dawn"))

# A tibble: 52 × 9
   suit   value points    id player trick_order in_suit player_win trick
   <chr>  <fct>  <dbl> <int> <chr>        <int> <lgl>   <chr>      <dbl>
 1 clubs  5          0     4 Dawn             1 TRUE    Cara           1
 2 clubs  6          0     5 Cara             2 TRUE    Cara           1
 3 clubs  4          0     3 Amy              3 TRUE    Cara           1
 4 clubs  2          0     1 Beth             4 TRUE    Cara           1
 5 spades Jack       0    49 Cara             1 TRUE    Beth           2
 6 spades 5          0    43 Amy              2 TRUE    Beth           2
 7 spades Ace        0    52 Beth             3 TRUE    Beth           2
 8 spades Queen     13    50 Dawn             4 TRUE    Beth           2
 9 spades 3          0    41 Beth             1 TRUE    Cara           3
10 spades 7          0    45 Amy              2 TRUE    Cara           3
# ℹ 42 more rows
…
